{"page":1,"total_results":67,"total_pages":4,"results":[{"original_name":"Marvel's Daredevil","genre_ids":[28,80],"name":"Marvel's Daredevil","popularity":30.109,"origin_country":["US"],"vote_count":1785,"first_air_date":"2015-04-10","backdrop_path":"/qsnXwGS7KBbX4JLqHvICngtR8qg.jpg","original_language":"en","id":61889,"vote_average":7.9,"overview":"Lawyer-by-day Matt Murdock uses his heightened senses from being blinded as a young boy to fight crime at night on the streets of Hell’s Kitchen as Daredevil.","poster_path":"/c47xj2YlMKPEMbLXlLriZaRnlXu.jpg"},{"original_name":"Marvel's Runaways","id":67466,"name":"Marvel's Runaways","popularity":20.73,"vote_count":241,"vote_average":7.8,"first_air_date":"2017-11-21","poster_path":"/w92yjz1sYzPJdpc7fIAGJJt9nWr.jpg","genre_ids":[10759,80,18,10765],"original_language":"en","backdrop_path":"/7PYAUaJzzUVxS4xiJHFe338vJd1.jpg","overview":"Every teenager thinks their parents are evil. What if you found out they actually were? Six diverse teenagers who can barely stand each other must unite against a common foe – their parents.","origin_country":["US"]},{"original_name":"Marvel's Jessica Jones","id":38472,"name":"Marvel's Jessica Jones","popularity":32.033,"vote_count":1103,"vote_average":7.6,"first_air_date":"2015-11-20","poster_path":"/7K54OG3m8AJCC9yUCOc4DHG3kmw.jpg","genre_ids":[10765,18],"original_language":"en","backdrop_path":"/57JFnZqpG5OLgHdZY7Zf9dKcZ5U.jpg","overview":"After a tragic ending to her short-lived super hero stint, Jessica Jones is rebuilding her personal life and career as a detective who gets pulled into cases involving people with extraordinary abilities in New York City.","origin_country":["US"]},{"original_name":"Marvel's Inhumans","genre_ids":[18,10759,10765],"name":"Marvel's Inhumans","popularity":15.679,"origin_country":["US"],"vote_count":201,"first_air_date":"2017-09-29","backdrop_path":"/9GNdPoCSzWYeo2eYKFVLvzcG6Wg.jpg","original_language":"en","id":68716,"vote_average":5.5,"overview":"After the Royal Family of Inhumans is splintered by a military coup, they barely escape to Hawaii where their surprising interactions with the lush world and humanity around them may prove to not only save them, but Earth itself.","poster_path":"/y3aFlpB4Vwn1Qz0WOTUOTf6GmPl.jpg"},{"original_name":"Marvel's The Punisher","id":67178,"name":"Marvel's The Punisher","popularity":23.65,"vote_count":767,"vote_average":8.1,"first_air_date":"2017-11-17","poster_path":"/7Zyx8kQr2nEbtSl8XV7ljio4vff.jpg","genre_ids":[10759,80,18],"original_language":"en","backdrop_path":"/sRr5NdPic882T24dNwkiw2VMst6.jpg","overview":"A former Marine out to punish the criminals responsible for his family's murder finds himself ensnared in a military conspiracy.","origin_country":["US"]},{"original_name":"Marvel's Agent Carter","genre_ids":[28,12],"name":"Marvel's Agent Carter","popularity":19.374,"origin_country":["US"],"vote_count":556,"first_air_date":"2015-01-06","backdrop_path":"/ryksnIn006p7lsd83L9Za20TePv.jpg","original_language":"en","id":61550,"vote_average":7.6,"overview":"It's 1946, and peace has dealt Peggy Carter a serious blow as she finds herself marginalized when the men return home from fighting abroad. Working for the covert SSR (Strategic Scientific Reserve), Peggy must balance doing administrative work and going on secret missions for Howard Stark all while trying to navigate life as a single woman in America, in the wake of losing the love of her life - Steve Rogers.","poster_path":"/dEbTdu1sytRR4GtrMX5tRiNgLU3.jpg"},{"original_name":"Marvel's Luke Cage","genre_ids":[80,18,10759,10765],"name":"Marvel's Luke Cage","popularity":17.666,"origin_country":["US"],"vote_count":803,"first_air_date":"2016-09-30","backdrop_path":"/j7AHhA0bH5FlVPVMFcKNOLC4PMv.jpg","original_language":"en","id":62126,"vote_average":7,"overview":"Given superstrength and durability by a sabotaged experiment, a wrongly accused man escapes prison to become a superhero for hire.","poster_path":"/xOCM4VgKtjGbCjtKSiJ7W9xYwsB.jpg"},{"original_name":"Marvel's The Defenders","id":62285,"name":"Marvel's The Defenders","popularity":12.806,"vote_count":530,"vote_average":7.1,"first_air_date":"2017-08-18","poster_path":"/gg2FoujYjmG2Oha24sAhd9aogvI.jpg","genre_ids":[10759,80,10765],"original_language":"en","backdrop_path":"/7eV2vDrj1AwlTffUud66v9o0Ytq.jpg","overview":"Daredevil, Jessica Jones, Luke Cage and Iron Fist join forces to take on common enemies as a sinister conspiracy threatens New York City.","origin_country":["US"]},{"original_name":"Marvel Rising: Initiation","genre_ids":[16,10759],"name":"Marvel Rising: Initiation","popularity":3.163,"origin_country":["US"],"vote_count":9,"first_air_date":"2018-08-13","backdrop_path":"/gC3tTz9wqXcmlQhEy1NilvVUVpJ.jpg","original_language":"en","id":83043,"vote_average":8.7,"overview":"Gwen Stacy AKA Ghost-Spider, wrongly accused of a crime she didn’t commit, seeks to clear her name and deliver justice. Unfortunately, her dad is not only Captain of the NYPD, but spearheading the manhunt! To make matters worse, other young heroes—Ms. Marvel, Squirrel Girl, Quake and Patriot—are after Ghost Spider as well. But, as the chase to uncover the truth winds down, a darker threat looms along the horizon, and very soon, these heroes will need to put aside their differences and work together as a team.","poster_path":"/nanDD3g6hF7JcrckygjxCPqViPT.jpg"},{"original_name":"Marvel's Avengers Assemble","genre_ids":[16,10759],"name":"Marvel's Avengers Assemble","popularity":15.815,"origin_country":["US"],"vote_count":0,"first_air_date":"2013-11-09","backdrop_path":"/mGHdzDAyMbLaHdNN1Q9H4BgPrP3.jpg","original_language":"en","id":59427,"vote_average":0,"overview":"The further adventures of the Marvel Universe's mightiest general membership superhero team. With an all-star roster consisting of Iron Man, Captain America, Thor, Hulk, Hawkeye, Falcon and, occasionally--when she feels like it and only when she feels like it--Black Widow, the Avengers are a team in the truest sense. The Avengers save the world from the biggest threats imaginable--threats no single super hero could withstand.","poster_path":"/aVYPq7FSvsdNQOXVIFnndXJPCXn.jpg"},{"original_name":"Marvel's Agents of S.H.I.E.L.D.","genre_ids":[18,10759,10765],"name":"Marvel's Agents of S.H.I.E.L.D.","popularity":76.961,"origin_country":["US"],"vote_count":1576,"first_air_date":"2013-09-24","backdrop_path":"/80BRASQnT9KT7BkFeEI0EdeRIF3.jpg","original_language":"en","id":1403,"vote_average":6.9,"overview":"Agent Phil Coulson of S.H.I.E.L.D. (Strategic Homeland Intervention, Enforcement and Logistics Division) puts together a team of agents to investigate the new, the strange and the unknown around the globe, protecting the ordinary from the extraordinary.","poster_path":"/vSt6VdhvT9gUa5wc6rkYYAlJpQJ.jpg"},{"original_name":"The Marvel Super Heroes","genre_ids":[16,10759,10762,10765],"name":"The Marvel Super Heroes","popularity":3.639,"origin_country":["CA","US"],"vote_count":2,"first_air_date":"1966-09-05","backdrop_path":"/vhbMTE6UVbIoyiD262wRYwFiNBa.jpg","original_language":"en","id":2164,"vote_average":7.8,"overview":"This cartoon series, characterized by extremely limited animation, features five of the most popular super-powered heroes from Marvel Comics: the Incredible Hulk, the Mighty Thor, Captain America, Iron Man, and the Sub-Mariner.","poster_path":null},{"original_name":"Marvel's Cloak & Dagger","id":66190,"name":"Marvel's Cloak & Dagger","popularity":14.497,"vote_count":224,"vote_average":7.4,"first_air_date":"2018-06-07","poster_path":"/oa50wfpa5Ip1AdPw17epdHuqyq1.jpg","genre_ids":[10759,18,10765],"original_language":"en","backdrop_path":"/iEXdA9n9R7Cne2ZY8PQfAjiGyFP.jpg","overview":"In New Orleans, Louisiana, teenagers Tandy Bowen and Tyrone Johnson come from different backgrounds and have acquired superpowers after a life-changing event that revolved around the collapse of the Roxxon Gulf Platform. As their friendship unfolds, they soon realize that their powers work better when they are together, they use these powers to try to fix some of the wrong in the world.","origin_country":["US"]},{"original_name":"Marvel's Spider-Man","id":72705,"name":"Marvel's Spider-Man","popularity":13.716,"vote_count":34,"vote_average":7.4,"first_air_date":"2017-08-19","poster_path":"/dKdcyyHUR5WTMnrbPdYN5y9xPVp.jpg","genre_ids":[16,10765],"original_language":"en","backdrop_path":"/9zIFxEiurX1zVuBffHjwFRJTXDT.jpg","overview":"An insecure but courageous and intelligent teen named Peter Parker, a new student of Midtown High, is bitten by a radioactive spider and given powers. He becomes a hero named Spider-Man after the death of his uncle and he must adapt to this new way of life.","origin_country":["US"]},{"original_name":"Marvel's Iron Fist","genre_ids":[18,10759,10765],"name":"Marvel's Iron Fist","popularity":6.842,"origin_country":["US"],"vote_count":1022,"first_air_date":"2017-03-17","backdrop_path":"/xHCfWGlxwbtMeeOnTvxUCZRGnkk.jpg","original_language":"en","id":62127,"vote_average":6.3,"overview":"Danny Rand resurfaces 15 years after being presumed dead. Now, with the power of the Iron Fist, he seeks to reclaim his past and fulfill his destiny.","poster_path":"/hu9eGudTohsMTChNbqAlXuiKeIU.jpg"},{"original_name":"Ms. Marvel","genre_ids":[18,10759,10765],"name":"Ms. Marvel","popularity":1.126,"origin_country":[],"vote_count":0,"first_air_date":"2021-12-31","backdrop_path":"/qBFixm2UtNUrmOtGbBfwwNw94ir.jpg","original_language":"en","id":92782,"vote_average":0,"overview":"Ms. Marvel is Pakistani-American Kamala Khan, a Muslim teenager who lives in Jersey City, New Jersey, and looks up to superheroes like Captain Marvel. She has an Inhuman ability to alter shape & size and employs an idealistic attitude as much as any power to make the world a better place.","poster_path":"/7UGKZ5c0HSwro6n7GChl8uyaIfy.jpg"},{"original_name":"Marvel Future Avengers","genre_ids":[16],"name":"Marvel Future Avengers","popularity":1.07,"origin_country":[],"vote_count":1,"first_air_date":"","backdrop_path":"/y9FhwCVyIqonm2XqwGrFtmalnkv.jpg","original_language":"ja","id":91278,"vote_average":10,"overview":"The anime follows Makoto, a young boy who gains superpowers due to an evil gene manipulation experiment. Makoto and other youths join the Avengers as apprentices named \"Future Avengers.\" The anime will show Makoto and others as they train, fight villains and grow, under Avengers members Iron Man, Captain America, Hulk, Thor, and Wasp.","poster_path":"/vtRxFVFa4MuhmWtIjbrp1yrxq8g.jpg"},{"original_name":"Marvel's Guardians of the Galaxy","genre_ids":[16,10759],"name":"Marvel's Guardians of the Galaxy","popularity":12.102,"origin_country":["US"],"vote_count":33,"first_air_date":"2015-09-05","backdrop_path":"/k9WCVeb0cm1gUNkorZXfpF1nsw4.jpg","original_language":"en","id":63181,"vote_average":7.6,"overview":"Light years from Earth, 26 years after being abducted, Peter Quill finds himself the prime target of a manhunt after discovering an orb wanted by Ronan the Accuser.","poster_path":"/oXwe3wVhdvvxiixL9UJf6PgBybZ.jpg"},{"original_name":"LEGO MARVEL Super Heroes: Maximum Overload","id":62576,"name":"LEGO MARVEL Super Heroes: Maximum Overload","popularity":1.938,"vote_count":4,"vote_average":7.4,"first_air_date":"2013-11-05","poster_path":null,"genre_ids":[16,10762],"original_language":"en","backdrop_path":null,"overview":"Villainous Loki is amassing an army to conquer Earth! His antics are keeping Spider-Man and S.H.I.E.L.D. busy as they tackle a host of bad guys.","origin_country":["US"]},{"original_name":"Marvel Mash-Up","genre_ids":[],"name":"Marvel Mash-Up","popularity":0.6,"origin_country":["US"],"vote_count":1,"first_air_date":"2012-01-04","backdrop_path":null,"original_language":"en","id":57083,"vote_average":8,"overview":"The Marvel Universe is turned upside down with these humorous and unexpected takes on iconic Marvel heroes and villains - featuring classic animation with new voices and editing.","poster_path":null}]}